Covid19_rc2
…
## Rows: 3342 Columns: 780

## -- Column specification --------------------------------------------------------
## Delimiter: ","
## chr   (6): iso2, iso3, Admin2, Province_State, Country_Region, Combined_Key
## dbl (774): UID, code3, FIPS, Lat, Long_, Population, 1/22/20, 1/23/20, 1/24/...

## 
## i Use `spec()` to retrieve the full column specification for this data.
## i Specify the column types or set `show_col_types = FALSE` to quiet this message.

## # A tibble: 218,112 x 4
##    `Province/State` `Country/Region` date    cases
##    <chr>            <chr>            <chr>   <dbl>
##  1 <NA>             Afghanistan      1/22/20     0
##  2 <NA>             Afghanistan      1/23/20     0
##  3 <NA>             Afghanistan      1/24/20     0
##  4 <NA>             Afghanistan      1/25/20     0
##  5 <NA>             Afghanistan      1/26/20     0
##  6 <NA>             Afghanistan      1/27/20     0
##  7 <NA>             Afghanistan      1/28/20     0
##  8 <NA>             Afghanistan      1/29/20     0
##  9 <NA>             Afghanistan      1/30/20     0
## 10 <NA>             Afghanistan      1/31/20     0
## # ... with 218,102 more rows

## # A tibble: 218,112 x 4
##    `Province/State` `Country/Region` date    deaths
##    <chr>            <chr>            <chr>    <dbl>
##  1 <NA>             Afghanistan      1/22/20      0
##  2 <NA>             Afghanistan      1/23/20      0
##  3 <NA>             Afghanistan      1/24/20      0
##  4 <NA>             Afghanistan      1/25/20      0
##  5 <NA>             Afghanistan      1/26/20      0
##  6 <NA>             Afghanistan      1/27/20      0
##  7 <NA>             Afghanistan      1/28/20      0
##  8 <NA>             Afghanistan      1/29/20      0
##  9 <NA>             Afghanistan      1/30/20      0
## 10 <NA>             Afghanistan      1/31/20      0
## # ... with 218,102 more rows

## Joining, by = c("Province/State", "Country/Region", "date")

## # A tibble: 218,112 x 5
##    Province_State Country_Region date       cases deaths
##    <chr>          <chr>          <date>     <dbl>  <dbl>
##  1 <NA>           Afghanistan    2020-01-22     0      0
##  2 <NA>           Afghanistan    2020-01-23     0      0
##  3 <NA>           Afghanistan    2020-01-24     0      0
##  4 <NA>           Afghanistan    2020-01-25     0      0
##  5 <NA>           Afghanistan    2020-01-26     0      0
##  6 <NA>           Afghanistan    2020-01-27     0      0
##  7 <NA>           Afghanistan    2020-01-28     0      0
##  8 <NA>           Afghanistan    2020-01-29     0      0
##  9 <NA>           Afghanistan    2020-01-30     0      0
## 10 <NA>           Afghanistan    2020-01-31     0      0
## # ... with 218,102 more rows
…
##  Length:198872      Length:198872      Min.   :2020-01-22   Min.   :       1  
##  Class :character   Class :character   1st Qu.:2020-09-04   1st Qu.:     577  
##  Mode  :character   Mode  :character   Median :2021-03-06   Median :    7505  
##                                        Mean   :2021-03-03   Mean   :  483613  
##                                        3rd Qu.:2021-09-03   3rd Qu.:  122088  
##                                        Max.   :2022-02-27   Max.   :78939203  
##      deaths      
##  Min.   :     0  
##  1st Qu.:     4  
##  Median :   106  
##  Mean   :  9909  
##  3rd Qu.:  2023  
##  Max.   :948397

## # A tibble: 659 x 5
##    Province_State Country_Region date          cases deaths
##    <chr>          <chr>          <date>        <dbl>  <dbl>
##  1 <NA>           Brazil         2022-02-18 28072238 643340
##  2 <NA>           Brazil         2022-02-19 28177367 644195
##  3 <NA>           Brazil         2022-02-20 28218180 644592
##  4 <NA>           Brazil         2022-02-21 28258458 644918
##  5 <NA>           Brazil         2022-02-22 28361951 645735
##  6 <NA>           Brazil         2022-02-23 28493336 646714
##  7 <NA>           Brazil         2022-02-24 28589235 647703
##  8 <NA>           Brazil         2022-02-25 28679671 648496
##  9 <NA>           Brazil         2022-02-26 28749552 649184
## 10 <NA>           Brazil         2022-02-27 28776794 649437
## # ... with 649 more rows

## # A tibble: 3,342 x 779
##         UID iso2  iso3  code3  FIPS Admin2   Province_State Country_Region   Lat
##       <dbl> <chr> <chr> <dbl> <dbl> <chr>    <chr>          <chr>          <dbl>
##  1 84001001 US    USA     840  1001 Autauga  Alabama        US              32.5
##  2 84001003 US    USA     840  1003 Baldwin  Alabama        US              30.7
##  3 84001005 US    USA     840  1005 Barbour  Alabama        US              31.9
##  4 84001007 US    USA     840  1007 Bibb     Alabama        US              33.0
##  5 84001009 US    USA     840  1009 Blount   Alabama        US              34.0
##  6 84001011 US    USA     840  1011 Bullock  Alabama        US              32.1
##  7 84001013 US    USA     840  1013 Butler   Alabama        US              31.8
##  8 84001015 US    USA     840  1015 Calhoun  Alabama        US              33.8
##  9 84001017 US    USA     840  1017 Chambers Alabama        US              32.9
## 10 84001019 US    USA     840  1019 Cherokee Alabama        US              34.2
## # ... with 3,332 more rows, and 770 more variables: Long_ <dbl>,
## #   Combined_Key <chr>, 1/22/20 <dbl>, 1/23/20 <dbl>, 1/24/20 <dbl>,
## #   1/25/20 <dbl>, 1/26/20 <dbl>, 1/27/20 <dbl>, 1/28/20 <dbl>, 1/29/20 <dbl>,
## #   1/30/20 <dbl>, 1/31/20 <dbl>, 2/1/20 <dbl>, 2/2/20 <dbl>, 2/3/20 <dbl>,
## #   2/4/20 <dbl>, 2/5/20 <dbl>, 2/6/20 <dbl>, 2/7/20 <dbl>, 2/8/20 <dbl>,
## #   2/9/20 <dbl>, 2/10/20 <dbl>, 2/11/20 <dbl>, 2/12/20 <dbl>, 2/13/20 <dbl>,
## #   2/14/20 <dbl>, 2/15/20 <dbl>, 2/16/20 <dbl>, 2/17/20 <dbl>, ...

## # A tibble: 2,566,656 x 6
##    Admin2  Province_State Country_Region Combined_Key         date       cases
##    <chr>   <chr>          <chr>          <chr>                <date>     <dbl>
##  1 Autauga Alabama        US             Autauga, Alabama, US 2020-01-22     0
##  2 Autauga Alabama        US             Autauga, Alabama, US 2020-01-23     0
##  3 Autauga Alabama        US             Autauga, Alabama, US 2020-01-24     0
##  4 Autauga Alabama        US             Autauga, Alabama, US 2020-01-25     0
##  5 Autauga Alabama        US             Autauga, Alabama, US 2020-01-26     0
##  6 Autauga Alabama        US             Autauga, Alabama, US 2020-01-27     0
##  7 Autauga Alabama        US             Autauga, Alabama, US 2020-01-28     0
##  8 Autauga Alabama        US             Autauga, Alabama, US 2020-01-29     0
##  9 Autauga Alabama        US             Autauga, Alabama, US 2020-01-30     0
## 10 Autauga Alabama        US             Autauga, Alabama, US 2020-01-31     0
## # ... with 2,566,646 more rows

## # A tibble: 2,566,656 x 7
##    Admin2  Province_State Country_Region Combined_Key      Population date      
##    <chr>   <chr>          <chr>          <chr>                  <dbl> <date>    
##  1 Autauga Alabama        US             Autauga, Alabama~      55869 2020-01-22
##  2 Autauga Alabama        US             Autauga, Alabama~      55869 2020-01-23
##  3 Autauga Alabama        US             Autauga, Alabama~      55869 2020-01-24
##  4 Autauga Alabama        US             Autauga, Alabama~      55869 2020-01-25
##  5 Autauga Alabama        US             Autauga, Alabama~      55869 2020-01-26
##  6 Autauga Alabama        US             Autauga, Alabama~      55869 2020-01-27
##  7 Autauga Alabama        US             Autauga, Alabama~      55869 2020-01-28
##  8 Autauga Alabama        US             Autauga, Alabama~      55869 2020-01-29
##  9 Autauga Alabama        US             Autauga, Alabama~      55869 2020-01-30
## 10 Autauga Alabama        US             Autauga, Alabama~      55869 2020-01-31
## # ... with 2,566,646 more rows, and 1 more variable: deaths <dbl>

## Joining, by = c("Admin2", "Province_State", "Country_Region", "Combined_Key", "date")

## # A tibble: 2,566,656 x 8
##    Admin2  Province_State Country_Region Combined_Key date       cases Population
##    <chr>   <chr>          <chr>          <chr>        <date>     <dbl>      <dbl>
##  1 Autauga Alabama        US             Autauga, Al~ 2020-01-22     0      55869
##  2 Autauga Alabama        US             Autauga, Al~ 2020-01-23     0      55869
##  3 Autauga Alabama        US             Autauga, Al~ 2020-01-24     0      55869
##  4 Autauga Alabama        US             Autauga, Al~ 2020-01-25     0      55869
##  5 Autauga Alabama        US             Autauga, Al~ 2020-01-26     0      55869
##  6 Autauga Alabama        US             Autauga, Al~ 2020-01-27     0      55869
##  7 Autauga Alabama        US             Autauga, Al~ 2020-01-28     0      55869
##  8 Autauga Alabama        US             Autauga, Al~ 2020-01-29     0      55869
##  9 Autauga Alabama        US             Autauga, Al~ 2020-01-30     0      55869
## 10 Autauga Alabama        US             Autauga, Al~ 2020-01-31     0      55869
## # ... with 2,566,646 more rows, and 1 more variable: deaths <dbl>

## # A tibble: 198,872 x 6
##    Combine_Key Province_State Country_Region date       cases deaths
##    <chr>       <chr>          <chr>          <date>     <dbl>  <dbl>
##  1 Afghanistan <NA>           Afghanistan    2020-02-24     5      0
##  2 Afghanistan <NA>           Afghanistan    2020-02-25     5      0
##  3 Afghanistan <NA>           Afghanistan    2020-02-26     5      0
##  4 Afghanistan <NA>           Afghanistan    2020-02-27     5      0
##  5 Afghanistan <NA>           Afghanistan    2020-02-28     5      0
##  6 Afghanistan <NA>           Afghanistan    2020-02-29     5      0
##  7 Afghanistan <NA>           Afghanistan    2020-03-01     5      0
##  8 Afghanistan <NA>           Afghanistan    2020-03-02     5      0
##  9 Afghanistan <NA>           Afghanistan    2020-03-03     5      0
## 10 Afghanistan <NA>           Afghanistan    2020-03-04     5      0
## # ... with 198,862 more rows

## Rows: 4218 Columns: 12

## -- Column specification --------------------------------------------------------
## Delimiter: ","
## chr (7): iso2, iso3, FIPS, Admin2, Province_State, Country_Region, Combined_Key
## dbl (5): UID, code3, Lat, Long_, Population

## 
## i Use `spec()` to retrieve the full column specification for this data.
## i Specify the column types or set `show_col_types = FALSE` to quiet this message.

## # A tibble: 4,218 x 5
##      UID FIPS  Province_State Country_Region      Population
##    <dbl> <chr> <chr>          <chr>                    <dbl>
##  1     4 <NA>  <NA>           Afghanistan           38928341
##  2     8 <NA>  <NA>           Albania                2877800
##  3    10 <NA>  <NA>           Antarctica                  NA
##  4    12 <NA>  <NA>           Algeria               43851043
##  5    20 <NA>  <NA>           Andorra                  77265
##  6    24 <NA>  <NA>           Angola                32866268
##  7    28 <NA>  <NA>           Antigua and Barbuda      97928
##  8    32 <NA>  <NA>           Argentina             45195777
##  9    51 <NA>  <NA>           Armenia                2963234
## 10    40 <NA>  <NA>           Austria                9006400
## # ... with 4,208 more rows

## # A tibble: 198,872 x 7
##    Province_State Country_Region date       cases deaths Population Combine_Key
##    <chr>          <chr>          <date>     <dbl>  <dbl>      <dbl> <chr>      
##  1 <NA>           Afghanistan    2020-02-24     5      0   38928341 Afghanistan
##  2 <NA>           Afghanistan    2020-02-25     5      0   38928341 Afghanistan
##  3 <NA>           Afghanistan    2020-02-26     5      0   38928341 Afghanistan
##  4 <NA>           Afghanistan    2020-02-27     5      0   38928341 Afghanistan
##  5 <NA>           Afghanistan    2020-02-28     5      0   38928341 Afghanistan
##  6 <NA>           Afghanistan    2020-02-29     5      0   38928341 Afghanistan
##  7 <NA>           Afghanistan    2020-03-01     5      0   38928341 Afghanistan
##  8 <NA>           Afghanistan    2020-03-02     5      0   38928341 Afghanistan
##  9 <NA>           Afghanistan    2020-03-03     5      0   38928341 Afghanistan
## 10 <NA>           Afghanistan    2020-03-04     5      0   38928341 Afghanistan
## # ... with 198,862 more rows

## `summarise()` has grouped output by 'Province_State', 'Country_Region'. You can override using the `.groups` argument.

## # A tibble: 44,544 x 7
##    Province_State Country_Region date       cases deaths deaths_per_mill
##    <chr>          <chr>          <date>     <dbl>  <dbl>           <dbl>
##  1 Alabama        US             2020-01-22     0      0               0
##  2 Alabama        US             2020-01-23     0      0               0
##  3 Alabama        US             2020-01-24     0      0               0
##  4 Alabama        US             2020-01-25     0      0               0
##  5 Alabama        US             2020-01-26     0      0               0
##  6 Alabama        US             2020-01-27     0      0               0
##  7 Alabama        US             2020-01-28     0      0               0
##  8 Alabama        US             2020-01-29     0      0               0
##  9 Alabama        US             2020-01-30     0      0               0
## 10 Alabama        US             2020-01-31     0      0               0
## # ... with 44,534 more rows, and 1 more variable: Population <dbl>

## `summarise()` has grouped output by 'Country_Region'. You can override using the `.groups` argument.

## # A tibble: 768 x 6
##    Country_Region date       cases deaths deaths_per_mill Population
##    <chr>          <date>     <dbl>  <dbl>           <dbl>      <dbl>
##  1 US             2020-01-22     1      1         0.00300  332875137
##  2 US             2020-01-23     1      1         0.00300  332875137
##  3 US             2020-01-24     2      1         0.00300  332875137
##  4 US             2020-01-25     2      1         0.00300  332875137
##  5 US             2020-01-26     5      1         0.00300  332875137
##  6 US             2020-01-27     5      1         0.00300  332875137
##  7 US             2020-01-28     5      1         0.00300  332875137
##  8 US             2020-01-29     6      1         0.00300  332875137
##  9 US             2020-01-30     6      1         0.00300  332875137
## 10 US             2020-01-31     8      1         0.00300  332875137
## # ... with 758 more rows
…
## # A tibble: 1 x 6
##   Province_State deaths cases Population cases_per_thou deaths_per_thou
##   <chr>           <dbl> <dbl>      <dbl>          <dbl>           <dbl>
## 1 American Samoa      0    84      55641           1.51               0

## # A tibble: 1 x 6
##   Province_State deaths  cases Population cases_per_thou deaths_per_thou
##   <chr>           <dbl>  <dbl>      <dbl>          <dbl>           <dbl>
## 1 Rhode Island     3406 355509    1059361           336.            3.22

## # A tibble: 56 x 7
##    Province_State       deaths   cases Population cases_per_thou deaths_per_thou
##    <chr>                 <dbl>   <dbl>      <dbl>          <dbl>           <dbl>
##  1 Alabama               18225 1279364    4903185         261.              3.72
##  2 Alaska                 1163  238683     740995         322.              1.57
##  3 American Samoa            0      84      55641           1.51            0   
##  4 Arizona               27946 1976890    7278717         272.              3.84
##  5 Arkansas              10497  819426    3017804         272.              3.48
##  6 California            85043 8961636   39512223         227.              2.15
##  7 Colorado              11752 1311061    5758736         228.              2.04
##  8 Connecticut           10465  722377    3565287         203.              2.94
##  9 Delaware               2709  256551     973764         263.              2.78
## 10 District of Columbia   1317  134326     705749         190.              1.87
## # ... with 46 more rows, and 1 more variable: pred <dbl>

## # A tibble: 56 x 7
##    Province_State       deaths   cases Population cases_per_thou deaths_per_thou
##    <chr>                 <dbl>   <dbl>      <dbl>          <dbl>           <dbl>
##  1 Alabama               18225 1279364    4903185         261.              3.72
##  2 Alaska                 1163  238683     740995         322.              1.57
##  3 American Samoa            0      84      55641           1.51            0   
##  4 Arizona               27946 1976890    7278717         272.              3.84
##  5 Arkansas              10497  819426    3017804         272.              3.48
##  6 California            85043 8961636   39512223         227.              2.15
##  7 Colorado              11752 1311061    5758736         228.              2.04
##  8 Connecticut           10465  722377    3565287         203.              2.94
##  9 Delaware               2709  256551     973764         263.              2.78
## 10 District of Columbia   1317  134326     705749         190.              1.87
## # ... with 46 more rows, and 1 more variable: pred <dbl>
…
